{
  "version": 1,
  "type": "doc",
  "content": [
    {
      "type": "paragraph",
      "content": [
        {
          "type": "text",
          "text": "Atlassian",
          "marks": [
            {
              "type": "link",
              "attrs": {
                "href": "http://atlassian.com"
              }
            }
          ]
        }
      ]
    }
  ]
}